Hello, World! – STA 199
…
Import the data

Import the data called survey-anonymized.csv in the folder called data using the read_csv() function:

survey <- read_csv("data/survey-anonymized.csv")

Take a peek at the data

survey

# A tibble: 230 × 5
   stats_experience       programming_experience programming_languages
   <chr>                  <chr>                  <chr>                
 1 Yes, I have taken a h… A little — I’ve writt… "Java, Python, Yaml,…
 2 No, I have not taken … None                    <NA>                
 3 Yes, I have taken a h… A little — I’ve writt…  <NA>                
 4 No, I have not taken … Some — I’ve worked on…  <NA>                
 5 No, I have not taken … Some — I’ve worked on…  <NA>                
 6 No, I have not taken … A little — I’ve writt…  <NA>                
 7 Yes, I have taken a h… None                   "Python and java"    
 8 No, I have not taken … None                    <NA>                
 9 Yes, I have taken a h… None                   "Python- a little bi…
10 Yes, I have taken a h… None                    <NA>                
# ℹ 220 more rows
# ℹ 2 more variables: learn_best <chr>, data_interests <chr>
…
Scan the QR code or go to app.wooclap.com/sta199.

Log in with your Duke NetID.

Take a peek + Participate 💻📱

# A tibble: 230 × 5
   stats_experience       programming_experience programming_languages
   <chr>                  <chr>                  <chr>                
 1 Yes, I have taken a h… A little — I’ve writt… "Java, Python, Yaml,…
 2 No, I have not taken … None                    <NA>                
 3 Yes, I have taken a h… A little — I’ve writt…  <NA>                
 4 No, I have not taken … Some — I’ve worked on…  <NA>                
 5 No, I have not taken … Some — I’ve worked on…  <NA>                
 6 No, I have not taken … A little — I’ve writt…  <NA>                
 7 Yes, I have taken a h… None                   "Python and java"    
 8 No, I have not taken … None                    <NA>                
 9 Yes, I have taken a h… None                   "Python- a little bi…
10 Yes, I have taken a h… None                    <NA>                
# ℹ 220 more rows
# ℹ 2 more variables: learn_best <chr>, data_interests <chr>
…
Politics

Sports

Other

No preference

Peek at the data

Code
survey |>
  select(data_interests)

# A tibble: 230 × 1
   data_interests                                                     
   <chr>                                                              
 1 "Economics,Politics"                                               
 2 "Health (e.g.\\, social determinants of health\\, medical),Politic…
 3 "Crime,Economics,Education,Environment/Climate,Politics,No prefere…
 4 "Crime,Education,Politics,Sports"                                  
 5 "Crime,Education,Entertainment (e.g.\\, books\\, movies\\, music),…
 6 "Crime,Entertainment (e.g.\\, books\\, movies\\, music),Health (e.…
 7 "Health (e.g.\\, social determinants of health\\, medical)"        
 8 "Education,Entertainment (e.g.\\, books\\, movies\\, music),Health…
 9 "Economics,Entertainment (e.g.\\, books\\, movies\\, music),Enviro…
10 "Economics,Environment/Climate,Sports"                             
# ℹ 220 more rows
…
