Joining data – STA 199
…
Sales taxes in US states

sales_taxes

# A tibble: 51 × 7
   state    state_tax_rate state_tax_rank avg_local_tax_rate max_local
   <chr>             <dbl>          <dbl>              <dbl>     <dbl>
 1 Alabama            4                40               5.44     11   
 2 Alaska             0                46               1.82      7.85
 3 Arizona            5.6              28               2.92      5.3 
 4 Arkansas           6.5               9               2.98      6.12
 5 Califor…           7.25              1               1.73      5.25
 6 Colorado           2.9              45               4.96      8.3 
 7 Connect…           6.35             12               0         0   
 8 Delaware           0                46               0         0   
 9 Florida            6                17               1.02      2   
10 Georgia            4                40               3.44      5   
# ℹ 41 more rows
# ℹ 2 more variables: combined_tax_rate <dbl>, combined_rank <dbl>
…
