STA 199 – Data types and classes
…
This is our a pipe [operator].

Data types

How many classes do you have on Tuesdays?

survey

# A tibble: 86 × 2
   year       tue_classes
   <chr>      <chr>      
 1 Senior     3          
 2 Sophomore  4          
 3 Sophomore  3          
 4 Junior     4          
 5 Sophomore  2          
 6 First-year 2          
 7 Junior     2          
 8 Sophomore  3          
 9 First-year 2          
10 Senior     3          
# ℹ 76 more rows

Variable types

What type of variable is tue_classes?

survey

# A tibble: 86 × 2
   year       tue_classes
   <chr>      <chr>      
 1 Senior     3          
 2 Sophomore  4          
 3 Sophomore  3          
 4 Junior     4          
 5 Sophomore  2          
 6 First-year 2          
 7 Junior     2          
 8 Sophomore  3          
 9 First-year 2          
10 Senior     3          
# ℹ 76 more rows
…
survey

# A tibble: 85 × 2
   year       tue_classes
   <chr>            <dbl>
 1 Senior               3
 2 Sophomore            4
 3 Sophomore            3
 4 Junior               4
 5 Sophomore            2
 6 First-year           2
 7 Junior               2
 8 Sophomore            3
 9 First-year           2
10 Senior               3
# ℹ 75 more rows
…
When we use the pull() function, we extract a vector from the data frame

df |>
  pull(y)

[1] 3 4

Working with factors

Read data in as character strings

survey

# A tibble: 85 × 2
   year       tue_classes
   <chr>            <dbl>
 1 Senior               3
 2 Sophomore            4
 3 Sophomore            3
 4 Junior               4
 5 Sophomore            2
 6 First-year           2
 7 Junior               2
 8 Sophomore            3
 9 First-year           2
10 Senior               3
# ℹ 75 more rows
…
