STA 199 – Exam 1 review
…
If variables in a data frame have multiple types of values, R will coerce them into a single type, which may or may not be what you want.

If what R does by default is not what you want, you can use explicit coercion functions like as.numeric(), as.character(), etc. to turn them into the types you want them to be, which will generally also involve cleaning up the features of the data that caused the unwanted implicit coercion in the first place.

Aesthetic mappings

openintro::loan50

library(openintro)
library(ggthemes)

loan50 |>
  select(annual_income, interest_rate, homeownership)

# A tibble: 50 × 3
   annual_income interest_rate homeownership
           <dbl>         <dbl> <fct>        
 1         59000         10.9  rent         
 2         60000          9.92 rent         
 3         75000         26.3  mortgage     
 4         75000          9.92 rent         
 5        254000          9.43 mortgage     
 6         67000          9.92 mortgage     
 7         28800         17.1  rent         
 8         80000          6.08 mortgage     
 9         34000          7.97 rent         
10         80000         12.6  mortgage     
# ℹ 40 more rows
…
