STA 199 – Web scraping a single page
…
chronicle

# A tibble: 500 × 7
   title           author date_time           month   day column url  
   <chr>           <chr>  <dttm>              <chr> <dbl> <chr>  <chr>
 1 The United Sta… Noor … 2025-10-07 10:00:00 Oct       7 Opini… http…
 2 The problem wi… Harri… 2025-10-07 10:00:00 Oct       7 Campu… http…
 3 The 'Duke Diff… Gabri… 2025-10-06 14:30:00 Oct       6 Campu… http…
 4 Death ain’t no… Luke … 2025-10-06 10:00:00 Oct       6 Campu… http…
 5 Hazing ban for… Monda… 2025-10-06 04:00:00 Oct       6 Campu… http…
 6 Duke’s hold on… Lucas… 2025-10-04 10:00:00 Oct       4 Campu… http…
 7 The world need… Leo G… 2025-10-03 10:00:00 Oct       3 Campu… http…
 8 We’ve grown th… Kayle… 2025-10-02 14:00:00 Oct       2 Opini… http…
 9 How Duke intro… Neel … 2025-10-01 10:00:00 Oct       1 Campu… http…
10 Why aren’t we … Ryan … 2025-10-01 10:00:00 Oct       1 Campu… http…
# ℹ 490 more rows
…
