STA 199 – Data science ethics
…
All articles

This can take a bit to run!

chronicle_article <- chronicle |>
  rowwise() |>
  mutate(article = parse_article_page(url)) |>
  ungroup()

chronicle_article

# A tibble: 500 × 8
   title   author date_time           month   day column url   article
   <chr>   <chr>  <dttm>              <chr> <dbl> <chr>  <chr> <chr>  
 1 The Un… Noor … 2025-10-07 10:00:00 Oct       7 Opini… http… "Frate…
 2 The pr… Harri… 2025-10-07 10:00:00 Oct       7 Campu… http… "In th…
 3 The 'D… Gabri… 2025-10-06 14:30:00 Oct       6 Campu… http… "A wee…
 4 Death … Luke … 2025-10-06 10:00:00 Oct       6 Campu… http… "Some …
 5 Hazing… Monda… 2025-10-06 04:00:00 Oct       6 Campu… http… "Edito…
 6 Duke’s… Lucas… 2025-10-04 10:00:00 Oct       4 Campu… http… "Duke …
 7 The wo… Leo G… 2025-10-03 10:00:00 Oct       3 Campu… http… "Recen…
 8 We’ve … Kayle… 2025-10-02 14:00:00 Oct       2 Opini… http… "As a …
 9 How Du… Neel … 2025-10-01 10:00:00 Oct       1 Campu… http… "Comin…
10 Why ar… Ryan … 2025-10-01 10:00:00 Oct       1 Campu… http… "The e…
# ℹ 490 more rows
…
Letters To The Editor
307
19

Opinion
1020
99

Summarize 1

chronicle_article |>
  mutate(n_words = str_count(article, " ") + 1) |>
  relocate(n_words)

# A tibble: 500 × 9
   n_words title   author date_time           month   day column url  
     <dbl> <chr>   <chr>  <dttm>              <chr> <dbl> <chr>  <chr>
 1    1006 The Un… Noor … 2025-10-07 10:00:00 Oct       7 Opini… http…
 2    1189 The pr… Harri… 2025-10-07 10:00:00 Oct       7 Campu… http…
 3     778 The 'D… Gabri… 2025-10-06 14:30:00 Oct       6 Campu… http…
 4     614 Death … Luke … 2025-10-06 10:00:00 Oct       6 Campu… http…
 5     534 Hazing… Monda… 2025-10-06 04:00:00 Oct       6 Campu… http…
 6     839 Duke’s… Lucas… 2025-10-04 10:00:00 Oct       4 Campu… http…
 7    1212 The wo… Leo G… 2025-10-03 10:00:00 Oct       3 Campu… http…
 8    1245 We’ve … Kayle… 2025-10-02 14:00:00 Oct       2 Opini… http…
 9     937 How Du… Neel … 2025-10-01 10:00:00 Oct       1 Campu… http…
10    1041 Why ar… Ryan … 2025-10-01 10:00:00 Oct       1 Campu… http…
# ℹ 490 more rows
# ℹ 1 more variable: article <chr>

Summarize 2

chronicle_article |>
  mutate(n_words = str_count(article, " ") + 1) |>
  group_by(column)

# A tibble: 500 × 9
# Groups:   column [3]
   title   author date_time           month   day column url   article
   <chr>   <chr>  <dttm>              <chr> <dbl> <chr>  <chr> <chr>  
 1 The Un… Noor … 2025-10-07 10:00:00 Oct       7 Opini… http… "Frate…
 2 The pr… Harri… 2025-10-07 10:00:00 Oct       7 Campu… http… "In th…
 3 The 'D… Gabri… 2025-10-06 14:30:00 Oct       6 Campu… http… "A wee…
 4 Death … Luke … 2025-10-06 10:00:00 Oct       6 Campu… http… "Some …
 5 Hazing… Monda… 2025-10-06 04:00:00 Oct       6 Campu… http… "Edito…
 6 Duke’s… Lucas… 2025-10-04 10:00:00 Oct       4 Campu… http… "Duke …
 7 The wo… Leo G… 2025-10-03 10:00:00 Oct       3 Campu… http… "Recen…
 8 We’ve … Kayle… 2025-10-02 14:00:00 Oct       2 Opini… http… "As a …
 9 How Du… Neel … 2025-10-01 10:00:00 Oct       1 Campu… http… "Comin…
10 Why ar… Ryan … 2025-10-01 10:00:00 Oct       1 Campu… http… "The e…
# ℹ 490 more rows
# ℹ 1 more variable: n_words <dbl>
…
