Spending your data – STA 199
…
Data

Taxi trips in Chicago, IL in 2022

Data from Chicago Data Portal

Data: chicago_taxi

chicago_taxi <- read_csv("data/chicago-taxi.csv")

chicago_taxi

# A tibble: 2,000 × 7
   tip   distance company                      local dow   month  hour
   <chr>    <dbl> <chr>                        <chr> <chr> <chr> <dbl>
 1 no        0.4  other                        yes   Fri   Mar      17
 2 no        0.96 Taxicab Insurance Agency Llc no    Mon   Apr       8
 3 no        1.07 Sun Taxi                     no    Fri   Feb      15
 4 no        1.13 other                        no    Sat   Feb      14
 5 no       10.8  Sun Taxi                     no    Sat   Apr      14
 6 no        3.6  Chicago Independents         no    Wed   Mar      12
 7 no        1.08 Flash Cab                    yes   Wed   Mar      13
 8 no        0.85 Taxicab Insurance Agency Llc no    Tue   Mar       8
 9 no       17.9  City Service                 no    Tue   Jan      20
10 no        0    City Service                 yes   Sun   Apr      16
# ℹ 1,990 more rows
…
This allows us to reproduce results by setting that seed.

Which seed you pick doesn’t matter, as long as you don’t try a bunch of seeds and pick the one that gives you the best performance.

Accessing the data

chicago_taxi_train <- training(chicago_taxi_split)
chicago_taxi_test <- testing(chicago_taxi_split)

The training set

chicago_taxi_train

# A tibble: 1,500 × 7
   tip   distance company                      local dow   month  hour
   <fct>    <dbl> <chr>                        <fct> <fct> <fct> <dbl>
 1 no        7.9  Taxi Affiliation Services    no    Sat   Apr      17
 2 no       10.7  Sun Taxi                     no    Fri   Mar       9
 3 yes       3.4  Taxi Affiliation Services    no    Thu   Mar      20
 4 no        4.7  Taxi Affiliation Services    no    Fri   Jan       9
 5 no       18.6  Taxicab Insurance Agency Llc no    Fri   Feb      15
 6 yes       0.89 other                        yes   Fri   Mar      17
 7 no       17.6  City Service                 no    Wed   Feb      19
 8 no        0.97 Taxicab Insurance Agency Llc yes   Thu   Mar      21
 9 no        0.4  other                        yes   Fri   Mar      17
10 yes       2.2  other                        no    Wed   Apr      10
# ℹ 1,490 more rows
…
