Making decisions – STA 199
…
Computing the CI for the slope II

Take 1000 bootstrap samples and fit models to each one:

set.seed(1120)

boot_fits <- duke_forest |>
  specify(price ~ area) |>
  generate(reps = 1000, type = "bootstrap") |>
  fit()

boot_fits

# A tibble: 2,000 × 3
# Groups:   replicate [1,000]
   replicate term      estimate
       <int> <chr>        <dbl>
 1         1 intercept   47819.
 2         1 area          191.
 3         2 intercept  144645.
 4         2 area          134.
 5         3 intercept  114008.
 6         3 area          161.
 7         4 intercept  100639.
 8         4 area          166.
 9         5 intercept  215264.
10         5 area          125.
# ℹ 1,990 more rows
…
Simulate null distribution

set.seed(20251202)
null_dist <- duke_forest |>
  specify(price ~ area) |>
  hypothesize(null = "independence") |>
  generate(reps = 1000, type = "permute") |>
  fit()

View null distribution

null_dist

# A tibble: 2,000 × 3
# Groups:   replicate [1,000]
   replicate term       estimate
       <int> <chr>         <dbl>
 1         1 intercept 594889.  
 2         1 area         -12.6 
 3         2 intercept 477930.  
 4         2 area          29.5 
 5         3 intercept 581950.  
 6         3 area          -7.93
 7         4 intercept 487542.  
 8         4 area          26.0 
 9         5 intercept 643406.  
10         5 area         -30.0 
# ℹ 1,990 more rows
…
