Looking further – STA 199
…
Null distribution

set.seed(199)
null_dist <- sex_discrimination |>
  specify(decision ~ sex, success = "promoted") |>
  hypothesize(null = "independence") |>
  generate(reps = 10000, type = "permute") |>
  calculate("diff in props", success = "promoted", order = c("male", "female"))

null_dist

Response: decision (factor)
Explanatory: sex (factor)
Null Hypothes...
# A tibble: 10,000 × 2
   replicate    stat
       <int>   <dbl>
 1         1 -0.208 
 2         2  0.125 
 3         3 -0.0417
 4         4 -0.0417
 5         5  0.125 
 6         6 -0.125 
 7         7 -0.0417
 8         8 -0.0417
 9         9 -0.0417
10        10 -0.0417
# ℹ 9,990 more rows
…
