AE 14: Chicago taxi classification – STA 199
…
Predict

Predict for the testing data using this model.

chicago_taxi_custom_aug <- augment(
  chicago_taxi_custom_fit,
  new_data = chicago_taxi_test
)
chicago_taxi_custom_aug

# A tibble: 500 × 10
   .pred_class .pred_no .pred_yes tip   distance company local dow   month  hour
   <fct>          <dbl>     <dbl> <fct>    <dbl> <chr>   <fct> <fct> <fct> <dbl>
 1 yes            0.474     0.526 no        0.4  other   yes   Fri   Mar      17
 2 yes            0.388     0.612 no        1.07 Sun Ta… no    Fri   Feb      15
 3 yes            0.353     0.647 no       10.8  Sun Ta… no    Sat   Apr      14
 4 yes            0.473     0.527 no        1.08 Flash … yes   Wed   Mar      13
 5 yes            0.440     0.560 no        0.85 Taxica… no    Tue   Mar       8
 6 yes            0.292     0.708 no       17.9  City S… no    Tue   Jan      20
 7 yes            0.370     0.630 no        4.4  City S… no    Fri   Feb       8
 8 yes            0.340     0.660 no       10    Taxi A… no    Thu   Apr      15
 9 yes            0.467     0.533 no        1    other   yes   Fri   Mar      18
10 yes            0.386     0.614 no        6.26 Flash … no    Tue   Apr      15
# ℹ 490 more rows
…
Sensitivity, specificity, ROC curve

Calculate sensitivity and specificity and draw the ROC curve.

chicago_taxi_custom_roc <- roc_curve(
  chicago_taxi_custom_aug,
  truth = tip,
  .pred_yes,
  event_level = "second"
)
chicago_taxi_custom_roc

# A tibble: 492 × 3
   .threshold specificity sensitivity
        <dbl>       <dbl>       <dbl>
 1   -Inf         0             1    
 2      0.421     0             1    
 3      0.425     0             0.997
 4      0.427     0.00503       0.993
 5      0.428     0.0101        0.993
 6      0.430     0.0151        0.993
 7      0.431     0.0201        0.993
 8      0.432     0.0251        0.993
 9      0.432     0.0302        0.993
10      0.435     0.0302        0.990
# ℹ 482 more rows
…
Predict

Predict for the testing data using this model.

chicago_taxi_full_aug <- augment(
  chicago_taxi_full_fit,
  new_data = chicago_taxi_test
)
chicago_taxi_full_aug

# A tibble: 500 × 10
   .pred_class .pred_no .pred_yes tip   distance company local dow   month  hour
   <fct>          <dbl>     <dbl> <fct>    <dbl> <chr>   <fct> <fct> <fct> <dbl>
 1 yes            0.452     0.548 no        0.4  other   yes   Fri   Mar      17
 2 yes            0.338     0.662 no        1.07 Sun Ta… no    Fri   Feb      15
 3 yes            0.290     0.710 no       10.8  Sun Ta… no    Sat   Apr      14
 4 no             0.611     0.389 no        1.08 Flash … yes   Wed   Mar      13
 5 yes            0.416     0.584 no        0.85 Taxica… no    Tue   Mar       8
 6 yes            0.289     0.711 no       17.9  City S… no    Tue   Jan      20
 7 yes            0.343     0.657 no        4.4  City S… no    Fri   Feb       8
 8 yes            0.351     0.649 no       10    Taxi A… no    Thu   Apr      15
 9 yes            0.446     0.554 no        1    other   yes   Fri   Mar      18
10 no             0.513     0.487 no        6.26 Flash … no    Tue   Apr      15
# ℹ 490 more rows
…
Sensitivity, specificity, ROC curve

Calculate sensitivity and specificity and draw the ROC curve.

chicago_taxi_full_roc <- roc_curve(
  chicago_taxi_full_aug,
  truth = tip,
  .pred_yes,
  event_level = "second"
)
chicago_taxi_full_roc

# A tibble: 500 × 3
   .threshold specificity sensitivity
        <dbl>       <dbl>       <dbl>
 1   -Inf         0             1    
 2      0.274     0             1    
 3      0.298     0.00503       1    
 4      0.311     0.0101        1    
 5      0.347     0.0151        1    
 6      0.348     0.0151        0.997
 7      0.355     0.0151        0.993
 8      0.356     0.0151        0.990
 9      0.357     0.0201        0.990
10      0.368     0.0201        0.987
# ℹ 490 more rows
…
