Exam 2 review – STA 199
…
In 2020, employees of Blizzard Entertainment circulated a spreadsheet to anonymously share salaries and recent pay increases amidst rising tension in the video game industry over wage disparities and executive compensation. (Source: Blizzard Workers Share Salaries in Revolt Over Pay)

The name of the data frame used for this analysis is blizzard_salary and the variables are:

percent_incr: Raise given in July 2020, as percent increase with values ranging from 1 (1% increase) to 21.5 (21.5% increase)

salary_type: Type of salary, with levels Hourly and Salaried

annual_salary: Annual salary, in USD, with values ranging from $50,939 to $216,856.

performance_rating: Most recent review performance rating, with levels Poor, Successful, High, and Top. The Poor level is the lowest rating and the Top level is the highest rating.

The first ten rows of blizzard_salary are shown below:

# A tibble: 409 × 4
   percent_incr salary_type annual_salary performance_rating
          <dbl> <chr>               <dbl> <chr>             
 1          1   Salaried               1  High              
 2          1   Salaried               1  Successful        
 3          1   Salaried               1  High              
 4          1   Hourly             33987. Successful        
 5         NA   Hourly             34798. High              
 6         NA   Hourly             35360  <NA>              
 7         NA   Hourly             37440  <NA>              
 8          0   Hourly             37814. <NA>              
 9          4   Hourly             41101. Top               
10          1.2 Hourly             42328  <NA>              
# ℹ 399 more rows
…
gross
revenue of the movie

company
the production company

The first thirty rows of the movies data frame are shown in Table 2, with variable types suppressed (since we’ll ask about them later).

Table 2

First 30 rows of movies, with variable types suppressed.

# A tibble: 500 × 16
   name           score runtime genre     rating    release_country release_date
 1 Blue City        4.4 83 mins Action    R         United States   1986-05-02  
 2 Winter Sleep     8.1 196     Drama     Not Rated Turkey          2014-06-12  
 3 Rang De Basan…   8.1 167     Comedy    Not Rated United States   2006-01-26  
 4 Pokémon Detec…   6.6 104     Action    PG        United States   2019-05-10  
 5 A Bad Moms Ch…   5.6 104     Comedy    R         United States   2017-11-01  
 6 Replicas         5.5 107     Drama     PG-13     United States   2019-01-11  
 7 Windy City       5.8 103     Drama     R         Uruguay         1986-01-01  
 8 War for the P…   7.4 140     Action    PG-13     United States   2017-07-14  
 9 Tales from th…   6.4 98      Crime     R         United States   1995-05-24  
10 Fire with Fire   6.5 103     Drama     PG-13     United States   1986-05-09  
11 Raising Helen    6   119     Comedy    PG-13     United States   2004-05-28  
12 Feeling Minne…   5.4 99      Comedy    R         United States   1996-09-13  
13 The Babe         5.9 115     Biography PG        United States   1992-04-17  
14 The Real Blon…   6   105     Comedy    R         United States   1998-02-27  
15 To vlemma tou…   7.6 176     Drama     Not Rated United States   1997-11-01  
16 Going the Dis…   6.3 102     Comedy    R         United States   2010-09-03  
17 Jung on zo       6.8 103     Action    R         Hong Kong       1993-06-24  
18 Rita, Sue and…   6.5 93      Comedy    R         United Kingdom  1987-05-29  
19 Phone Booth      7   81      Crime     R         United States   2003-04-04  
20 Happy Death D…   6.6 96      Comedy    PG-13     United States   2017-10-13  
21 Barely Legal     4.7 90      Comedy    R         Thailand        2006-05-25  
22 Three Kings      7.1 114     Action    R         United States   1999-10-01  
23 Menace II Soc…   7.5 97      Crime     R         United States   1993-05-26  
24 Four Rooms       6.8 98      Comedy    R         United States   1995-12-25  
25 Quartet          6.8 98      Comedy    PG-13     United States   2013-03-01  
26 Tape             7.2 86      Drama     R         Denmark         2002-07-12  
27 Marked for De…   6   93      Action    R         United States   1990-10-05  
28 Congo            5.2 109     Action    PG-13     United States   1995-06-09  
29 Stop-Loss        6.4 112     Drama     R         United States   2008-03-28  
30 Con Air          6.9 115     Action    R         United States   1997-06-06  
# ℹ 470 more rows
# ℹ 9 more variables: budget, gross, votes, year,
#   director, writer, star, company, country
…
