Exam 1 review – STA 199
…
In 2020, employees of Blizzard Entertainment circulated a spreadsheet to anonymously share salaries and recent pay increases amidst rising tension in the video game industry over wage disparities and executive compensation. (Source: Blizzard Workers Share Salaries in Revolt Over Pay)

The name of the data frame used for this analysis is blizzard_salary and the variables are:

percent_incr: Raise given in July 2020, as percent increase with values ranging from 1 (1% increase to 21.5 (21.5% increase)

salary_type: Type of salary, with levels Hourly and Salaried

annual_salary: Annual salary, in USD, with values ranging from $50,939 to $216,856.

performance_rating: Most recent review performance rating, with levels Poor, Successful, High, and Top. The Poor level is the lowest rating and the Top level is the highest rating.

The top ten rows of blizzard_salary are shown below:

# A tibble: 409 × 4
   percent_incr salary_type annual_salary performance_rating
          <dbl> <chr>               <dbl> <chr>             
 1          1   Salaried               1  High              
 2          1   Salaried               1  Successful        
 3          1   Salaried               1  High              
 4          1   Hourly             33987. Successful        
 5         NA   Hourly             34798. High              
 6         NA   Hourly             35360  <NA>              
 7         NA   Hourly             37440  <NA>              
 8          0   Hourly             37814. <NA>              
 9          4   Hourly             41101. Top               
10          1.2 Hourly             42328  <NA>              
# ℹ 399 more rows
…
NYC Flights

The flights dataset includes characteristics of all flights departing from New York City airports (JFK, LGA, EWR) in 2013. Below is a peek at the first ten rows of the flights data.

# A tibble: 336,776 × 19
    year month   day arr_delay carrier dep_time sched_dep_time dep_delay
   <int> <int> <int>     <dbl> <chr>      <int>          <int>     <dbl>
 1  2013     1     1        11 UA           517            515         2
 2  2013     1     1        20 UA           533            529         4
 3  2013     1     1        33 AA           542            540         2
 4  2013     1     1       -18 B6           544            545        -1
 5  2013     1     1       -25 DL           554            600        -6
 6  2013     1     1        12 UA           554            558        -4
 7  2013     1     1        19 B6           555            600        -5
 8  2013     1     1       -14 EV           557            600        -3
 9  2013     1     1        -8 B6           557            600        -3
10  2013     1     1         8 AA           558            600        -2
# ℹ 336,766 more rows
# ℹ 11 more variables: arr_time <int>, sched_arr_time <int>, flight <int>,
#   tailnum <chr>, origin <chr>, dest <chr>, air_time <dbl>, distance <dbl>,
#   hour <dbl>, minute <dbl>, time_hour <dttm>
…
The flights data frame is a tibble.

The flights data frame has 10 rows.

The flights data frame has 8 columns.

The carrier variable in the flights data frame is a character variable.

There are no missing data in the flights data frame.

Question 18

Which of the following pipelines produce(s) the output shown below? Select all that apply.

# A tibble: 336,776 × 5
   arr_delay carrier  year month   day
       <dbl> <chr>   <int> <int> <int>
 1      1272 HA       2013     1     9
 2      1127 MQ       2013     6    15
 3      1109 MQ       2013     1    10
 4      1007 AA       2013     9    20
 5       989 MQ       2013     7    22
 6       931 DL       2013     4    10
 7       915 DL       2013     3    17
 8       895 DL       2013     7    22
 9       878 AA       2013    12     5
10       875 MQ       2013     5     3
# ℹ 336,766 more rows
…
Question 26

The name and runtime variables are shown below, with the variable types suppressed.

# A tibble: 500 × 2
  name                      runtime
1 Blue City                 83 mins
2 Winter Sleep              196    
3 Rang De Basanti           167    
4 Pokémon Detective Pikachu 104    
5 A Bad Moms Christmas      104    
6 Replicas                  107    
# ℹ 494 more rows
…
